date,username,to,replies,retweets,favorites,text,geo,mentions,hashtags,id,permalink
2020-02-23 23:53:50,DorinhaLeal,,0,0,0,"E assim invadimos o Paraviana Meta?! Diversão!!! #carnaval2020 #boavista #roraima #brasil em Bairro Paraviana https://www.instagram.com/p/B87bUMslhfxW974ZDUliflShJZ6Obxu3G7Btos0/?igshid=1wlpfv0vx467i",,,#carnaval2020 #boavista #roraima #brasil,1231728905456963585,https://twitter.com/DorinhaLeal/status/1231728905456963585
2020-02-28 00:35:33,Parintins24hs,,0,0,1,"Você que está em Boa Vista - Roraima e quer saborear aquela pizza maravilhosa, a pedida é a cascatapizzaria_paraviana ! em Cascata Pizzaria https://www.instagram.com/p/B9FzRY7FXZS/?igshid=fbaw8uinj5ma",,,,1233188955543220224,https://twitter.com/Parintins24hs/status/1233188955543220224
