date,username,to,replies,retweets,favorites,text,geo,mentions,hashtags,id,permalink
2020-03-08 22:13:51,senoralmeida,,0,0,0,"I'm at Igreja Batista Alvorada in Boa Vista, Roraima ",,,,1236777175640092672,https://twitter.com/senoralmeida/status/1236777175640092672
2020-03-15 22:20:17,senoralmeida,,0,0,1,"I'm at Igreja Batista Alvorada in Boa Vista, Roraima ",,,,1239315510409539587,https://twitter.com/senoralmeida/status/1239315510409539587
2020-03-17 21:24:14,paulacramon,folha,0,0,1,"“A decisão, disse o presidente, não vai valer para o tráfego de mercadorias. ""Amanhã tem a portaria. O tráfego de mercadorias vai continuar acontecendo. Se fechar o tráfego com Venezuela a economia de Roraima desanca"", declarou, ao chegar no Palácio da Alvorada.” ",,,,1240026181023477766,https://twitter.com/paulacramon/status/1240026181023477766
