date,username,to,replies,retweets,favorites,text,geo,mentions,hashtags,id,permalink
2020-03-02 20:49:46,AgenciaNorte,,0,0,0,"AOS DAMORIDAS- Em Roraima, as adições para a triagem clínica de doadores já estão sendo seguidas pela única unidade de captação de sangue do Estado, o Hemoraima (Centro de Hemoterapia e Hematologia de Roraima)... ",,,,1234581689986408449,https://twitter.com/AgenciaNorte/status/1234581689986408449
2020-03-02 18:25:29,machado_ovidio,,1,0,1,"A Funai, por meio da Frente de Proteção Etnoambiental Yanomami Ye'Kuana (FPEYY), participou de ação de prevenção a incêndios florestais na Terra Indígena Yanomami, no estado de Roraima, realizada pelo Centro Nacional de Prevenção e Combate aos Incêndios Florestais. ",,,,1234545377279389697,https://twitter.com/machado_ovidio/status/1234545377279389697
2020-03-02 16:54:21,funaioficial,,0,1,5,"A Funai participou da ação de prevenção a incêndios na Terra Indígena Yanomami, no estado de Roraima, realizada pelo Centro Nacional de Prevenção e Combate aos Incêndios Florestais (Prevfogo/Ibama). https://bit.ly/38j6yRo Foto: Ibama",,,,1234522441914953728,https://twitter.com/funaioficial/status/1234522441914953728
2020-03-02 14:41:32,charlesamancio,,0,0,2,"Campeonato aberto disputado em Boa Vista -2004 Nostalgia! Centro juvenil Dom Bosco #futsal #HC10 #TG10 #TC12 em Boa Vista, Roraima https://www.instagram.com/p/B9PCeCzB74P/?igshid=t3uludsd84h8",,,#futsal #HC10 #TG10 #TC12,1234489019943096320,https://twitter.com/charlesamancio/status/1234489019943096320
2020-03-03 22:48:19,Luiz_Valerio,,0,0,1,"A equipe I,Robot, do Centro de Ciência, Tecnologia e Inovação (CCTI) da Prefeitura de Boa Vista vai participar da etapa nacional do Torneio de Robótica First Lego League (FLL) em São Paulo. Leia no #GuiaRoraima - https://guiaroraima.com/noticias-03-03-2020-equipe-de-robotica-do-ccti-vai-representar-boa-vista-em-torneio-nacional-em-sao-paulo #Guia Roraima",,,#GuiaRoraima #Guia,1234973910296219649,https://twitter.com/Luiz_Valerio/status/1234973910296219649
2020-03-03 21:39:35,depnicoletti,,0,0,1,"…segurança energética para Roraima. Reunião preparatória concluída com sucesso! O seminário ocorrerá no próximo dia 20 (sexta-feira), das 8h às 12h, no Auditório Tepequém da sede administrativa do SESC/RR (Rua Dr. Araújo Filho, nº 947, Centro). Aguardo a presença de todos!",,,,1234956614190424064,https://twitter.com/depnicoletti/status/1234956614190424064
2020-03-03 16:47:00,TweetNoti,RCamachoVzla,0,1,1,"RT @RCamachoVzla #Caracas #Denuncia: Bote de Aguas Negras en la Av Roraima de San Bernardino al frente del Centro de Educación Inicial ""Piruetas"". Niños corren peligro de infecciones y enfermedades ",,@RCamachoVzla,#Caracas #Denuncia,1234882982458068993,https://twitter.com/TweetNoti/status/1234882982458068993
2020-03-03 16:21:14,ElNotipin,,0,0,0,"@RCamachoVzla | #Caracas Bote de Aguas Negras en la Av. Roraima de San Bernardino al frente del Centro de Educación Inicial #Piruetas. Niños corren peligro de infecciones y enfermedades.",,@RCamachoVzla,#Caracas #Piruetas,1234876495648239616,https://twitter.com/ElNotipin/status/1234876495648239616
2020-03-03 16:01:38,RCamachoVzla,,3,109,55,"#Caracas Denuncia: Bote de Aguas Negras en la Av Roraima de San Bernardino al frente del Centro de Educación Inicial ""Piruetas"". Niños corren peligro de infecciones y enfermedades. ",,,#Caracas,1234871565629698051,https://twitter.com/RCamachoVzla/status/1234871565629698051
2020-03-03 13:03:24,norenavas,,0,0,0,"@HIDROCAPITALca por favor arreglar el bote de aguas negras que esta en la calle roraima de san bernandino, afecta a los estudiantes del centro de educación inicial Piruetas y de un colegio @globovision @noticierovv",,@HIDROCAPITALca @globovision @noticierovv,,1234826711570755585,https://twitter.com/norenavas/status/1234826711570755585
2020-03-04 18:43:24,Sesau_Roraima,,0,0,0,"Na semana da mulher, o serviço prestado pelo Centro de Referência da Saúde da Mulher Maria Luíza Castro Perin, esteve em pauta, durante entrevista, na Rádio FM Monte Roraima. Foi um momento importante para esclarecer aos ouvintes sobre a importância dos cuidados com a saúde. ",,,,1235274663770677249,https://twitter.com/Sesau_Roraima/status/1235274663770677249
2020-03-05 18:22:38,imbrozio,,0,1,5,"Coletivo do #Lavrado realiza I Feira Roraimense de #quadrinhos, 21.03.2020. A programação contará com palestras, vendas, trocas e exposição de #quadrinhos. O evento é gratuito e acontece no #SESC Centro, localizado na Av. Mario Homem de Melo #Roraima",,,#Lavrado #quadrinhos #quadrinhos #SESC #Roraima,1235631822345777154,https://twitter.com/imbrozio/status/1235631822345777154
2020-03-10 14:54:34,ariasderemax,,0,0,0,"A media hora del Centro de San Cristóbal, Táchira, Venezuela P L A N D E F I N A N C I A M I E N T O *Apartamentos a #Estrenar en Parque Residencial RORAIMA* Ubicado en #PaloGordo Municipio #Cárdenas del… https://www.instagram.com/p/B9jqDKaAxLC/?igshid=4vgln4lteyq4",,,#Estrenar #PaloGordo #C,1237391400708104192,https://twitter.com/ariasderemax/status/1237391400708104192
2020-03-11 22:35:32,aprovinciadopa,,0,0,0,"Centro de análise de vestígios sexuais ajuda na resolução de crimes Nos próximos dias, os estados do Acre, Alagoas, Piauí, RioGrande do Norte, Rondônia, Roraima e Tocantins terão acesso a modernos equipamentos de processamento genético para análise #cri http://aprovinciadopara.com.br/plataforma-de-extracao-de-dna-atendera-mais-cinco-estados/",,,#cri,1237869796194017283,https://twitter.com/aprovinciadopa/status/1237869796194017283
2020-03-11 15:41:30,AdvNoroeste,,0,0,1,"A ""Expedição Pacaraima"" e ""Milagres em Massauari"" foram séries de reportagens produzidas pelo centro de mídia da #AdventistasNoroeste sobre os refugiados venezuelanos que usaram a cidade de Pacaraima, em Roraima,… https://www.instagram.com/p/B9mUfOnjcya/?igshid=1pbt9xyiohito",,,#AdventistasNoroeste,1237765601017434112,https://twitter.com/AdvNoroeste/status/1237765601017434112
2020-03-12 18:06:29,MovAvanteBrasil,,1,4,6,"localizado no Instituto Nacional de Criminalística da Polícia Federal’. “O centro atenderá, inicialmente, as demandas do Acre, Alagoas, Piauí, Rio Grande do Norte, Rondônia, Roraima e Tocantins”. O secretário Nacional de Segurança Pública, Guilherme Theophilo, +",,,,1238164476119126017,https://twitter.com/MovAvanteBrasil/status/1238164476119126017
2020-03-12 13:00:01,BorgesEdRR,,0,1,0,"O coronavirus chegou na Guiana e já fez sua primeira vítima. Também aportou no centro-oeste brasileiro. Pouco a pouco está cercando Roraima, o estado onde tudo é virose. ",,,,1238087349172666369,https://twitter.com/BorgesEdRR/status/1238087349172666369
2020-03-13 18:47:43,MarleneFFL,,2,40,65,"LONDRES 225.Consulado Brasileiro 3 Vere ST Marylebone 15:00 RORAIMA 226.Boa Vista Praça do Centro Cívico 17:00 LISBOA 227.Praça Luiz de Camões 14:00 BOSTON 228.Praça de Harvard 13:00",,,,1238537241473044480,https://twitter.com/MarleneFFL/status/1238537241473044480
2020-03-13 00:38:16,roraimadefato,,0,0,0,"Monumento ao Garimpeiro, na Praça do Centro Cívico #BoaVista #MonumentoAoGarimpeiro #Roraima #RoraimaDeFato #BrasilDoExtremoNorte #Amazônia #AventuraRoraima #AventuraAmazônia em Boa Vista,… https://www.instagram.com/p/B9p2cuDlBR7/?igshid=14w8295zek1fm",,,#BoaVista #MonumentoAoGarimpeiro #Roraima #RoraimaDeFato #BrasilDoExtremoNorte #Amaz #AventuraRoraima #AventuraAmaz,1238263071241580544,https://twitter.com/roraimadefato/status/1238263071241580544
2020-03-14 02:47:50,Graci_Roraima,Lets_Dex,0,0,1,"Dex, lembra a cena do filme Duro de Matar, qdo fecharam o centro da cidade por causa de um feriado (salvo engano) e os bandidos aproveitaram para fazer um grande assalto? É só mais uma teoria da conspiração. ",,,,1238658063017672712,https://twitter.com/Graci_Roraima/status/1238658063017672712
2020-03-15 01:39:19,EliOliv98248502,,0,9,8,"*LONDRES* 225. Consulado Brasileiro 3 Vere ST Marylebone 15:00 *RORAIMA* 226. Boa Vista Praça do Centro Cívico 17:00 *LISBOA* 227. Praça Luiz de Camões 14:00 *BOSTON* 228. Praça de Harvard 13:00 *MIAMI* 229. Margate 3101 NW31ST 33063 The EventCenter 14:00. Fim.",,,,1239003208086847488,https://twitter.com/EliOliv98248502/status/1239003208086847488
2020-03-16 23:59:20,josuel_castro,,0,0,0,"Estados brasileiro ainda livres de casos do coronavírus. (sem casos confirmado pelo ministério da saúde até agora) NORTE: Pará, Amapá, Acre, Roraima, Rondônia, Tocantins NORDESTE: Maranhão, Ceará, Piauí E Paraíba CENTRO OESTE: Mato Grosso #BrasilContraOcoronavirus",,,#BrasilContraOcoronavirus,1239702824054915075,https://twitter.com/josuel_castro/status/1239702824054915075
2020-03-16 14:23:14,AgenciaNorte,,0,0,0,"AOS DAMORIDAS- A Secretaria de Saúde, por meio do COE-RR (Centro de Operações Emergenciais em Saúde Pública de Roraima), torna pública a divulgação do BOLETIM EPIDEMIOLÓGICO PARA ATUALIZAÇÃO SOBRE O CORONAVÍRUS....",,,,1239557842534838273,https://twitter.com/AgenciaNorte/status/1239557842534838273
2020-03-16 14:22:56,ccamutt,mariaguieiras,1,0,2,"e o primeiro caso de Roraima q foi im venezuelano dentro dum Centro de refugiados kkkkkkk rindo de nervosa pq meus avós ainda moram lá",,,,1239557769218396163,https://twitter.com/ccamutt/status/1239557769218396163
2020-03-16 13:15:04,Rodrigo47939718,arielsonnet,1,0,2,"Eu queria que tivesse tido extrema esquerda no Brasil. Daí então vermes como você e o Bolsonaro estariam quebrando pedra em um centro de reeducação em Roraima.",,,,1239540690197065729,https://twitter.com/Rodrigo47939718/status/1239540690197065729
2020-03-17 22:01:54,thewolftrust,JuhZanca,0,0,0,"Eu estou de acordo, devemos deixar ele fermentando e se movimentando no meio da aglomeração esquerdista e, com sorte, centro-isentonista.",,,,1240035660800634880,https://twitter.com/thewolftrust/status/1240035660800634880
2020-03-17 16:17:04,ubabomber,,0,0,0," Campeonato Acreano 18:00 Acreano vs Galvez Campeonato Roraimense 20:00 Atl. Roraima vs GAS 22:00 Sao Raimundo RR vs Bare Primera D 16:00 Muñiz vs Centro Español 16:00 Claypole vs Dep. Paraguayo",,,,1239948876787965953,https://twitter.com/ubabomber/status/1239948876787965953
2020-03-17 15:47:57,correiolavrado,,0,0,0,"Procon Assembleia, CHAME, Fiscaliza Roraima e Centro de Apoio aos Municípios também terão suas atividades de atendimento ao público suspensas neste período, ficando mantidos os serviços de comunicação por telefone, e-mail e outras formas de atendimento remoto ao público externo",,,,1239941551658278914,https://twitter.com/correiolavrado/status/1239941551658278914
2020-03-17 13:24:01,biancaraisa,rodriguesjully_,1,0,1,"Shopping ou centro na foto Roraima",,,,1239905331112751110,https://twitter.com/biancaraisa/status/1239905331112751110
2020-03-18 23:29:11,igormourape,,3,0,48,"Boa Vista é capital de Roraima, tá? Não fica no Centro-Oeste. Talvez o presidente tenha se equivocado mais uma vez na última das 3 entrevistas do dia.",,,,1240420013808508929,https://twitter.com/igormourape/status/1240420013808508929
2020-03-19 14:58:50,caerroraima,,0,0,1,"CAER INFORMA A Caer (Companhia de Águas e Esgotos de Roraima) informa que nesta quinta-feira, dia 19 de março, o CRD (Centro de Reservação e Distribuição) do Caranã será desligado das 14h às 19h, para manutenção de uma adutora de ferro fundido, medindo 400mm, no Cidade Satélite. ",,,,1240653966029045772,https://twitter.com/caerroraima/status/1240653966029045772
2020-03-20 14:52:50,caerroraima,,7,1,1,"𝐂𝐀𝐄𝐑 𝐈𝐍𝐅𝐎𝐑𝐌𝐀 A Caer (Companhia de Águas e Esgotos de Roraima) informa que nesta sexta-feira, dia 20 de março, o CRD (Centro de Reservação e Distribuição) do Caranã será desligado das 10h às 15h. Saiba mais em: https://www.instagram.com/p/B99YFl6l-ok/",,,,1241014845295792134,https://twitter.com/caerroraima/status/1241014845295792134
2020-03-21 20:48:44,rbezerrademelo,,0,0,3,"Pelo balanço do Ministério da Saúde, só Roraima, hoje, no País não tem casos confirmados do novo #coronavirus . O Norte tem 26 casos o Nordeste, 168, o Centro-Oeste, 138, o Sudeste, 642 e o Sul, 154.",,,#coronavirus,1241466797301342214,https://twitter.com/rbezerrademelo/status/1241466797301342214
2020-03-21 20:43:52,fabionobrega,,1,0,0," Distribuição dos casos de coronavírus por região do Brasil: Sudeste - 642 (56,9%) Nordeste - 168 (14,9%) Sul - 154 (13,7%) Centro-oeste - 138 (12,2%) Norte - 26 (2,3%) Apenas Roraima segue sem casos confirmados.",,,,1241465571360804866,https://twitter.com/fabionobrega/status/1241465571360804866
2020-03-21 18:03:30,MontezanoRenato,veramagalhaes,0,0,0,"Doria reclama de Bolsonaro...mas é muito difícil para o capitão de descendencia italiana pedir a destruição da Economia Nacional...este trava tudo vai demolir o Pais..no entanto, um Pais desta dimensão, não pode tratar Roraima como o Su/Sudeste/Centro-Oeste...já há uma sincronia.",,,,1241425215948759046,https://twitter.com/MontezanoRenato/status/1241425215948759046
2020-03-22 12:56:31,DS_biovida,depheliolopes,1,0,4,"@depheliolopes está ocorrendo a entrada ilegal de imigrantes haitianos, via Roraima. Muitos haitianos em voos de Boa Vista para o centro do Brasil",,@depheliolopes,,1241710346169188353,https://twitter.com/DS_biovida/status/1241710346169188353
2020-03-26 01:56:11,foldassi,CoronavirusBra1,0,0,1,"Roraima isolada do jeito que é semana passada tinha 0 casos hoje 8 o Tocantins q é praticamente no centro-oeste tem um a menos. Já estamos fodidos. ",,,,1242993722826133504,https://twitter.com/foldassi/status/1242993722826133504
2020-03-27 20:05:07,Sesau_Roraima,,0,0,0,"Aliado ao combate do @govroraima , por meio da Secretaria de Saúde, contra o Coronavírus, o médico infectologista Alexandre Salomão, que integra o COE-RR (Centro de Operações Emergenciais em Saúde Pública de Roraima), deu dicas de prevenção em entrevista à Rádio Tropical hoje ",,@govroraima,,1243630149721034754,https://twitter.com/Sesau_Roraima/status/1243630149721034754
2020-03-27 17:38:12,natandradde,TaynaFiori,1,0,1,"Qual curso? Dificil demais. Esse em questão entrou de ferias no meio da janela, com jogadora dele desesperada sem time. Jogadora de SP, Centro Olimpico e Seleção de base indo pra Roraima pq o bonito perdeu janela",,,,1243593174943182848,https://twitter.com/natandradde/status/1243593174943182848
2020-03-30 21:38:35,depnicoletti,,1,0,0,"- R$330 mil garantirão a ampliação e implantação de melhorias no Centro de Saúde do Corpo de Bombeiros de Roraima - R$200 mil serão destinados para o Posto Médico da Aeronáutica, em Boa Vista, unidade que também presta importante serviço de Saúde à população.",,,,1244740833313722368,https://twitter.com/depnicoletti/status/1244740833313722368
2020-03-30 14:00:45,Sesau_Roraima,,1,0,1,"O Governo de Roraima tem mantido ações de reestruturação da saúde, para atender a população da melhor maneira possível nesse momento da epidemia causada pelo COVID 19. O Governo fez a contratação de 40 leitos de enfermaria e um Centro Cirúrgico, com quatro salas. ",,,,1244625616277733376,https://twitter.com/Sesau_Roraima/status/1244625616277733376
2020-03-30 01:05:17,cristinaarfrei1,,6,14,80,"Governo de São Paulo fez dois hospitais de campanha colossais em um centro de exposições e no Pacaembu. Fortaleza e Roraima também. No Rio deve ter dois, um no Maracanã. O que o Zema do Novo, governador de Minas tá fazendo pra combater o Coronavirus? Vários NADAS!",,,,1244430462329765893,https://twitter.com/cristinaarfrei1/status/1244430462329765893
2020-03-30 00:26:53,demori,,115,704,7737,"Governo de São Paulo fez dois hospitais de campanha colossais em um centro de exposições e no Pacaembu. Fortaleza e Roraima também. No Rio deve ter dois, um no Maracanã. Tem governador que entendeu tudo (inclusive politicamente, o que é do jogo quando se faz a coisa certa).",,,,1244420797931958279,https://twitter.com/demori/status/1244420797931958279
