filename,width,height,class,xmin,ymin,xmax,ymax
raspberry-13.jpg,800,600,raspberry,17,226,331,589
arduino-2.jpg,800,600,arduino,25,54,779,509
raspberry-6.jpg,800,600,raspberry,174,242,419,344
arduino-12.jpg,800,600,arduino,5,8,800,596
arduino-5.jpg,800,600,arduino,109,66,710,515
raspberry-11.jpg,800,600,raspberry,325,126,737,312
arduino-8.jpg,800,600,arduino,3,3,795,599
raspberry-7.jpg,800,600,raspberry,205,95,644,476
raspberry-10.jpg,800,600,raspberry,277,201,277,201
raspberry-10.jpg,800,600,raspberry,178,74,626,453
arduino-10.jpg,800,600,arduino,212,66,651,440
arduino-11.jpg,800,600,arduino,138,169,581,410
arduino-1.jpg,800,600,arduino,55,106,740,501
arduino-4.jpg,800,600,arduino,20,83,778,523
raspberry-1.jpg,800,600,raspberry,95,125,721,447
arduino-0.jpg,800,600,arduino,157,95,614,344
raspberry-3.jpg,800,600,raspberry,59,17,748,590
arduino-7.jpg,800,600,arduino,15,56,782,546
arduino-13.jpg,800,600,arduino,62,77,634,277
arduino-9.jpg,800,600,arduino,46,177,763,565
raspberry-8.jpg,800,600,raspberry,389,126,702,523
raspberry-12.jpg,800,600,raspberry,133,38,647,539
arduino-6.jpg,800,600,arduino,104,3,688,590
arduino-3.jpg,800,600,arduino,17,81,772,513
raspberry-4.jpg,800,600,raspberry,16,30,464,590
raspberry-0.jpg,800,600,raspberry,41,35,760,566
raspberry-5.jpg,800,600,raspberry,189,68,607,541
raspberry-2.jpg,800,600,raspberry,19,57,790,564
raspberry-9.jpg,800,600,raspberry,147,163,594,288
